<?xml version="1.0" encoding="UTF-8" standalone="no"?>
<svg
   xmlns:dc="http://purl.org/dc/elements/1.1/"
   xmlns:cc="http://creativecommons.org/ns#"
   xmlns:rdf="http://www.w3.org/1999/02/22-rdf-syntax-ns#"
   xmlns:svg="http://www.w3.org/2000/svg"
   xmlns="http://www.w3.org/2000/svg"
   xmlns:sodipodi="http://sodipodi.sourceforge.net/DTD/sodipodi-0.dtd"
   xmlns:inkscape="http://www.inkscape.org/namespaces/inkscape"
   version="1.1"
   x="0px"
   y="0px"
   viewBox="0 0 90 89.875"
   enable-background="new 0 0 100 100"
   xml:space="preserve"
   id="svg2"
   inkscape:version="0.91 r13725"
   sodipodi:docname="hamburger_black.svg"
   width="90"
   height="89.875"><metadata
     id="metadata24"><rdf:RDF><cc:Work
         rdf:about=""><dc:format>image/svg+xml</dc:format><dc:type
           rdf:resource="http://purl.org/dc/dcmitype/StillImage" /><dc:title></dc:title></cc:Work></rdf:RDF></metadata><defs
     id="defs22" /><sodipodi:namedview
     pagecolor="#ffffff"
     bordercolor="#666666"
     borderopacity="1"
     objecttolerance="10"
     gridtolerance="10"
     guidetolerance="10"
     inkscape:pageopacity="0"
     inkscape:pageshadow="2"
     inkscape:window-width="1366"
     inkscape:window-height="744"
     id="namedview20"
     showgrid="false"
     fit-margin-top="0"
     fit-margin-left="0"
     fit-margin-right="0"
     fit-margin-bottom="0"
     inkscape:zoom="1.888"
     inkscape:cx="80.296053"
     inkscape:cy="6.4831586"
     inkscape:window-x="0"
     inkscape:window-y="24"
     inkscape:window-maximized="1"
     inkscape:current-layer="svg2" /><g
     id="g4"
     transform="translate(-5.028,-5)"><path
       d="m 92.028,25 -84,0 c -1.657,0 -3,-1.343 -3,-3 l 0,-14 c 0,-1.657 1.343,-3 3,-3 l 84,0 c 1.657,0 3,1.343 3,3 l 0,14 c 0,1.657 -1.343,3 -3,3 z"
       id="path6"
       inkscape:connector-curvature="0" /></g><g
     id="g8"
     transform="translate(-5.028,-5)"><path
       d="m 92.028,59.938 -84,0 c -1.657,0 -3,-1.343 -3,-3 l 0,-14 c 0,-1.657 1.343,-3 3,-3 l 84,0 c 1.657,0 3,1.343 3,3 l 0,14 c 0,1.656 -1.343,3 -3,3 z"
       id="path10"
       inkscape:connector-curvature="0" /></g><g
     id="g12"
     transform="translate(-5.028,-5)"><path
       d="m 92.028,94.875 -84,0 c -1.657,0 -3,-1.343 -3,-3 l 0,-14 c 0,-1.657 1.343,-3 3,-3 l 84,0 c 1.657,0 3,1.343 3,3 l 0,14 c 0,1.657 -1.343,3 -3,3 z"
       id="path14"
       inkscape:connector-curvature="0" /></g></svg>